Couleurs
Rose vif !! : 	#FC00FF
				rgba(252, 0, 252,1)
Bleu vif !! : 	#00DBDE
				rgba(0, 219, 222, 1)
Violet vif !! : #7303C0
				rgba(115, 3, 192, 1)
Violet vif !!
+ clair			#9700ff
				rgba(151, 0, 255, 1)

Gris/Beige :	#EDE9DE
				rgba(237, 233, 222, 1)
Blanc :			white
				#FFFFFF
				rgba(255, 255, 255, 1)
Noir :			black
				#000000
				rgba(0, 0, 0, 1)




Violet foncé : 	purple
				#800080
				rgba(128, 0, 128, 1)
Violet + foncé:	#600080
				rgba(96, 0, 128, 1)
Lila:		 	#CFA0E9
				rgba(207, 160, 233, 1)
Gris clair :	#D3D3D3
				rgba(211, 211, 211, 1)
Bleu Outlook :	#
				rgba()
Bleu LinkedIn :	#0E76A8
				rgba(14, 118, 168, 1)

Rose vif : 		#E60068
				rgba(230, 0, 104, 1)
Violet vif :	#C400E6
				rgba(196, 0, 230, 1)
Gris foncé :	#696969
				rgba(105, 105, 105, 1)
Violet foncé :	#b000b0
				rgba(145, 0, 145, 1)
Gris / noir :	#333333
				rdba(51, 51, 51, 1)
Gris / blanc :	#EEEEEE
				rgba(238, 238, 238, 1)
Violet / blanc :#
				rgba()
Gris clair :	#AAAAAA
				rgba(170, 170, 170, 1)